\relax 
\providecommand\hyper@newdestlabel[2]{}
\providecommand\HyperFirstAtBeginDocument{\AtBeginDocument}
\HyperFirstAtBeginDocument{\ifx\hyper@anchor\@undefined
\global\let\oldcontentsline\contentsline
\gdef\contentsline#1#2#3#4{\oldcontentsline{#1}{#2}{#3}}
\global\let\oldnewlabel\newlabel
\gdef\newlabel#1#2{\newlabelxx{#1}#2}
\gdef\newlabelxx#1#2#3#4#5#6{\oldnewlabel{#1}{{#2}{#3}}}
\AtEndDocument{\ifx\hyper@anchor\@undefined
\let\contentsline\oldcontentsline
\let\newlabel\oldnewlabel
\fi}
\fi}
\global\let\hyper@last\relax 
\gdef\HyperFirstAtBeginDocument#1{#1}
\providecommand*\HyPL@Entry[1]{}
\HyPL@Entry{0<</S/r>>}
\select@language{british}
\@writefile{toc}{\select@language{british}}
\@writefile{lof}{\select@language{british}}
\@writefile{lot}{\select@language{british}}
\HyPL@Entry{2<</S/r>>}
\@writefile{toc}{\contentsline {chapter}{Contents}{iii}{section*.2}}
\citation{pcomm}
\HyPL@Entry{6<</S/D>>}
\@writefile{toc}{\contentsline {chapter}{\numberline {1}Introduction}{1}{section*.3}}
\@writefile{toc}{\contentsline {section}{\numberline {1.1}Topic covered by the project}{1}{section.1.1}}
\citation{pcomm}
\@writefile{toc}{\contentsline {section}{\numberline {1.2}Keywords}{2}{section.1.2}}
\@writefile{toc}{\contentsline {section}{\numberline {1.3}Problem description}{2}{section.1.3}}
\@writefile{toc}{\contentsline {section}{\numberline {1.4}Justification, motivation and benefits}{2}{section.1.4}}
\citation{pcomm}
\@writefile{toc}{\contentsline {section}{\numberline {1.5}Research questions}{3}{section.1.5}}
\newlabel{research:questions}{{1.5}{3}{Research questions}{section.1.5}{}}
\@writefile{toc}{\contentsline {section}{\numberline {1.6}Planned contributions}{3}{section.1.6}}
\citation{undercurrents}
\citation{wapp}
\citation{falp}
\citation{stars}
\citation{ludology}
\citation{TFM}
\citation{GNS}
\@writefile{toc}{\contentsline {chapter}{\numberline {2}Related work}{5}{section*.4}}
\citation{geq}
\citation{ieq}
\citation{ggdl}
\citation{rpdrama}
\citation{diegeses}
\citation{presearch}
\@writefile{toc}{\contentsline {chapter}{\numberline {3}Choice of methods}{7}{section*.5}}
\citation{focg}
\citation{pcomm}
\@writefile{toc}{\contentsline {chapter}{\numberline {4}Milestones, deliverables and resources}{9}{section*.6}}
\@writefile{toc}{\contentsline {section}{\numberline {4.1}Resources}{9}{section.4.1}}
\@writefile{toc}{\contentsline {section}{\numberline {4.2}Deliverables}{9}{section.4.2}}
\@writefile{toc}{\contentsline {section}{\numberline {4.3}Milestones}{9}{section.4.3}}
\@writefile{toc}{\contentsline {chapter}{\numberline {5}Feasibility study}{11}{section*.7}}
\@writefile{toc}{\contentsline {chapter}{\numberline {6}Risk analysis}{13}{section*.8}}
\citation{presearch}
\bibstyle{gucmasterthesis}
\bibdata{imt4441}
\@writefile{toc}{\contentsline {chapter}{\numberline {7}Ethical and legal considerations}{15}{section*.9}}
\bibcite{pcomm}{1}
\bibcite{undercurrents}{2}
\bibcite{wapp}{3}
\bibcite{falp}{4}
\bibcite{stars}{5}
\bibcite{ludology}{6}
\bibcite{TFM}{7}
\bibcite{GNS}{8}
\bibcite{geq}{9}
\bibcite{ieq}{10}
\bibcite{ggdl}{11}
\bibcite{rpdrama}{12}
\bibcite{diegeses}{13}
\@writefile{toc}{\contentsline {chapter}{Bibliography}{17}{section*.11}}
\bibcite{presearch}{14}
\bibcite{focg}{15}
