\relax 
\providecommand\HyperFirstAtBeginDocument{\AtBeginDocument}
\HyperFirstAtBeginDocument{\ifx\hyper@anchor\@undefined
\global\let\oldcontentsline\contentsline
\gdef\contentsline#1#2#3#4{\oldcontentsline{#1}{#2}{#3}}
\global\let\oldnewlabel\newlabel
\gdef\newlabel#1#2{\newlabelxx{#1}#2}
\gdef\newlabelxx#1#2#3#4#5#6{\oldnewlabel{#1}{{#2}{#3}}}
\AtEndDocument{\ifx\hyper@anchor\@undefined
\let\contentsline\oldcontentsline
\let\newlabel\oldnewlabel
\fi}
\fi}
\global\let\hyper@last\relax 
\gdef\HyperFirstAtBeginDocument#1{#1}
\providecommand\HyField@AuxAddToFields[1]{}
\select@language{british}
\@writefile{toc}{\select@language{british}}
\@writefile{lof}{\select@language{british}}
\@writefile{lot}{\select@language{british}}
\@writefile{toc}{\contentsline {chapter}{Revision history}{iii}{section*.2}}
\@writefile{toc}{\contentsline {paragraph}{Control questions}{i}{section*.3}}
\@writefile{toc}{\contentsline {chapter}{Contents}{iii}{section*.5}}
\@writefile{toc}{\contentsline {chapter}{\numberline {1}Contents of the project description}{1}{section*.6}}
\citation{Avizienis2004}
\@writefile{toc}{\contentsline {chapter}{\numberline {2}Introduction (1-2 pages)}{3}{section*.7}}
\@writefile{toc}{\contentsline {section}{\numberline {2.1}Topic covered by the project}{3}{section.2.1}}
\@writefile{toc}{\contentsline {paragraph}{Control questions:}{3}{section*.8}}
\@writefile{toc}{\contentsline {section}{\numberline {2.2}Keywords}{3}{section.2.2}}
\@writefile{toc}{\contentsline {paragraph}{Control questions:}{3}{section*.9}}
\@writefile{toc}{\contentsline {section}{\numberline {2.3}Problem description}{4}{section.2.3}}
\@writefile{toc}{\contentsline {paragraph}{Control questions:}{4}{section*.10}}
\@writefile{toc}{\contentsline {section}{\numberline {2.4}Justification, motivation and benefits}{4}{section.2.4}}
\@writefile{toc}{\contentsline {paragraph}{Control questions}{4}{section*.11}}
\@writefile{toc}{\contentsline {section}{\numberline {2.5}Research questions}{4}{section.2.5}}
\newlabel{research:questions}{{2.5}{4}{Research questions\relax }{section.2.5}{}}
\@writefile{toc}{\contentsline {paragraph}{Control questions:}{5}{section*.12}}
\@writefile{toc}{\contentsline {section}{\numberline {2.6}Planned contributions}{5}{section.2.6}}
\@writefile{toc}{\contentsline {paragraph}{Control questions}{5}{section*.13}}
\@writefile{toc}{\contentsline {chapter}{\numberline {3}Related work (3-10 pages)}{7}{section*.14}}
\@writefile{toc}{\contentsline {section}{\numberline {3.1}Handling Potential problems}{7}{section.3.1}}
\@writefile{toc}{\contentsline {paragraph}{Question 1}{7}{section*.15}}
\@writefile{toc}{\contentsline {paragraph}{Answer 1.A}{7}{section*.16}}
\@writefile{toc}{\contentsline {paragraph}{Answer 1.B}{7}{section*.17}}
\@writefile{toc}{\contentsline {paragraph}{Question 2}{7}{section*.18}}
\@writefile{toc}{\contentsline {paragraph}{Answer 2.A}{8}{section*.19}}
\@writefile{toc}{\contentsline {paragraph}{Answer 2B}{8}{section*.20}}
\@writefile{toc}{\contentsline {paragraph}{Control questions:}{8}{section*.21}}
\@writefile{toc}{\contentsline {chapter}{\numberline {4}Choice of methods (2-5 pages)}{9}{section*.22}}
\@writefile{toc}{\contentsline {chapter}{\numberline {5}Milestones, deliverables and resources (2-5 pages)}{11}{section*.23}}
\@writefile{toc}{\contentsline {chapter}{\numberline {6}Feasibility study (1/2-3 pages)}{13}{section*.24}}
\@writefile{toc}{\contentsline {chapter}{\numberline {7}Risk analysis (1/2-2 pages)}{15}{section*.25}}
\@writefile{toc}{\contentsline {chapter}{\numberline {8}Ethical and legal considerations (1/4-1 page)}{17}{section*.26}}
\@writefile{toc}{\contentsline {chapter}{\numberline {9}The bibliography}{19}{section*.27}}
\bibstyle{gucmasterthesis}
\bibdata{imt4441}
\@writefile{toc}{\contentsline {chapter}{\numberline {A}Known problems with MikTeX and TeXnicCenter}{21}{section*.28}}
\@writefile{toc}{\contentsline {section}{\numberline {A.1}Hig logo xor url's}{21}{section.A.1}}
\@writefile{toc}{\contentsline {paragraph}{Problem}{21}{section*.29}}
\@writefile{toc}{\contentsline {paragraph}{Possible solution 1}{21}{section*.30}}
\@writefile{toc}{\contentsline {paragraph}{Possible solution 2}{21}{section*.31}}
\@writefile{toc}{\contentsline {section}{\numberline {A.2}\textlatin  {\LaTeX  }/AFPL Ghostscript crashes}{21}{section.A.2}}
\@writefile{toc}{\contentsline {paragraph}{Problem}{21}{section*.32}}
\@writefile{toc}{\contentsline {paragraph}{Possible solution}{21}{section*.33}}
\bibcite{Avizienis2004}{1}
\@writefile{toc}{\contentsline {chapter}{Bibliography}{23}{section*.35}}
